<?xml version="1.0" standalone="no"?>
<!DOCTYPE svg PUBLIC "-//W3C//DTD SVG 1.1//EN" "http://www.w3.org/Graphics/SVG/1.1/DTD/svg11.dtd">
<svg xmlns="http://www.w3.org/2000/svg">
<metadata>Copyright (C) 2015 by original authors @ fontello.com</metadata>
<defs>
<font id="pleasant" horiz-adv-x="1000" >
<font-face font-family="pleasant" font-weight="400" font-stretch="normal" units-per-em="1000" ascent="850" descent="-150" />
<missing-glyph horiz-adv-x="1000" />
<glyph glyph-name="spinner" unicode="&#xe800;" d="m277 100q0-33-24-57t-57-23q-33 0-56 23t-24 57 24 57 56 23q33 0 57-23t24-57z m241-107q0-30-21-51t-51-21-50 21-21 51 21 50 50 21 51-21 21-50z m-339 357q0-37-27-63t-63-26-63 26-26 63 26 63 63 26 63-26 27-63z m580-250q0-26-18-44t-45-18-44 18-18 44 18 44 44 19 45-19 18-44z m-464 500q0-41-29-69t-70-29-69 29-29 69 29 69 69 29 70-29 29-69z m259 107q0-45-32-76t-76-31-75 31-32 76 32 76 75 31 76-31 32-76z m303-357q0-22-15-38t-38-16-38 16-16 38 16 38 38 16 38-16 15-38z m-116 250q0-18-13-32t-32-13-31 13-13 32 13 31 31 14 32-14 13-31z" horiz-adv-x="875" />
</font>
</defs>
</svg>